age,population
Topic0,16
Topic1,9
Topic2,8
Topic3,8
Topic4,9
Topic5,4
Topic6,7
Topic7,1
Topic8,11
Topic9,14
Topic10,12
Topic11,7
Topic12,43
Topic13,11
Topic14,4
Topic15,7
Topic16,10
Topic17,19
Topic18,3
Topic19,8
