age,population
Topic0,1
Topic1,1
Topic2,1
Topic3,2
Topic4,2
Topic5,0
Topic6,1
Topic7,2
Topic8,1
Topic9,1
Topic10,1
Topic11,1
Topic12,0
Topic13,4
Topic14,1
Topic15,3
Topic16,1
Topic17,1
Topic18,1
Topic19,1
